﻿MEETING_CENTRES,,,,,
První,EBC-UNO,Executive Briefing Centre - Horní,,,
Druhé,EBC-DOS,Executive Briefing Centre - Dolní,,,
Třetí,EBC-TRES,Lhota,,,
MEETING_ROOMS,,,,,
1.1 Merkur,EBC-C7-MR:1_1,Standardní zasedací místnost,8,NO,EBC-UNO
1.2 Venuše,EBC-C7-MR:1_2,Standardní zasedací místnost,8,NO,EBC-UNO
1.3 Mars,EBC-C7-MR:1_3,Standardní zasedací místnost s video konferencí,12,YES,EBC-DOS
2.4 Jupiter,EBC-C7-MR:2_4,Velká zasedací místnost s video konferencí,30,YES,EBC-TRES
2.5 Saturn,EBC-C7-MR:2_5,Velká školírna s velkou tabulí a projekcí,50,YES,EBC-DOS
0.1 Uran,EBC-PAR-MR:0_1,Učebna ,30,NO,EBC-UNO
1.1 Neptun,EBC-PAR-MR:1_1,Velká učebna,50,NO,EBC-UNO
1.2 Nemesis,EBC-PAR-MR:1_2,Menší učebna,12,NO,EBC-TRES
